Input writer m: 5
Input reader n: 5
[writer 1] enters the critical section
[writer 1] updates database: 30
[writer 1] sleeps 5 second.....
[writer 1] exits the critical section
[writer 2] enters the critical section
[writer 2] updates database: 10
[writer 2] sleeps 10 second..........
[writer 2] exits the critical section
[writer 3] enters the critical section
[writer 3] updates database: 2
[writer 3] sleeps 5 second.....
[writer 3] exits the critical section
[writer 4] enters the critical section
[writer 4] updates database: 32
[writer 4] sleeps 10 second..........
[writer 4] exits the critical section
[writer 5] enters the critical section
[writer 5] updates database: 8
[writer 5] sleeps 5 second.....
[writer 5] exits the critical section
          [reader 1] enters the critical section
          [reader 1] reads database: 8
          [reader 1] sleeps 4 second
          [reader 2] enters the critical section
          [reader 2] reads database: 8
          [reader 2] sleeps 4 second
          [reader 3] enters the critical section
          [reader 3] reads database: 8
          [reader 3] sleeps 4 second
          [reader 4] enters the critical section
          [reader 4] reads database: 8
          [reader 4] sleeps 2 second
          [reader 5] enters the critical section
          [reader 5] reads database: 8
          [reader 5] sleeps 4 second
          [reader 4] exits the critical section
          [reader 4] enters the critical section
          [reader 4] reads database: 8
          [reader 4] sleeps 4 second
          [reader 3] exits the critical section
          [reader 2] exits the critical section
          [reader 1] exits the critical section
          [reader 5] exits the critical section
          [reader 2] enters the critical section
          [reader 2] reads database: 8
          [reader 1] enters the critical section
          [reader 1] reads database: 8
          [reader 1] sleeps 4 second
          [reader 5] enters the critical section
          [reader 5] reads database: 8
          [reader 5] sleeps 4 second
          [reader 3] enters the critical section
          [reader 3] reads database: 8
          [reader 3] sleeps 2 second
          [reader 2] sleeps 2 second
          [reader 3] exits the critical section
          [reader 2] exits the critical section
          [reader 4] exits the critical section
          [reader 2] enters the critical section
          [reader 2] reads database: 8
          [reader 2] sleeps 2 second
          [reader 3] enters the critical section
          [reader 3] reads database: 8
          [reader 3] sleeps 2 second
          [reader 4] enters the critical section
          [reader 4] reads database: 8
          [reader 4] sleeps 4 second
          [reader 5] exits the critical section
          [reader 1] exits the critical section
          [reader 1] enters the critical section
          [reader 1] reads database: 8
          [reader 1] sleeps 2 second
          [reader 3] exits the critical section
          [reader 2] exits the critical section
          [reader 5] enters the critical section
          [reader 5] reads database: 8
          [reader 5] sleeps 4 second
          [reader 2] enters the critical section
          [reader 2] reads database: 8
          [reader 2] sleeps 2 second
          [reader 3] enters the critical section
          [reader 3] reads database: 8
          [reader 3] sleeps 2 second
          [reader 4] exits the critical section
          [reader 1] exits the critical section
          [reader 4] enters the critical section
          [reader 1] enters the critical section
          [reader 1] reads database: 8
          [reader 1] sleeps 4 second
          [reader 3] exits the critical section
          [reader 2] exits the critical section
          [reader 4] reads database: 8
          [reader 4] sleeps 2 second
          [reader 3] enters the critical section
          [reader 3] reads database: 8
          [reader 3] sleeps 2 second
          [reader 2] enters the critical section
          [reader 2] reads database: 8
          [reader 2] sleeps 4 second
          [reader 5] exits the critical section
          [reader 5] enters the critical section
          [reader 5] reads database: 8
          [reader 5] sleeps 2 second
          [reader 4] exits the critical section
          [reader 4] enters the critical section
          [reader 4] reads database: 8
          [reader 4] sleeps 4 second
          [reader 3] exits the critical section
          [reader 3] enters the critical section
          [reader 3] reads database: 8
          [reader 3] sleeps 2 second
          [reader 5] exits the critical section
          [reader 1] exits the critical section
          [reader 2] exits the critical section
          [reader 1] enters the critical section
          [reader 1] reads database: 8
          [reader 5] enters the critical section
          [reader 5] reads database: 8
          [reader 5] sleeps 4 second
          [reader 1] sleeps 4 second
          [reader 2] enters the critical section
          [reader 3] exits the critical section
          [reader 2] reads database: 8
          [reader 2] sleeps 4 second
          [reader 3] enters the critical section
          [reader 3] reads database: 8
          [reader 3] sleeps 4 second
          [reader 4] exits the critical section
          [reader 4] enters the critical section
          [reader 4] reads database: 8
          [reader 4] sleeps 2 second
          [reader 5] exits the critical section
          [reader 1] exits the critical section
          [reader 1] enters the critical section
          [reader 1] reads database: 8
          [reader 1] sleeps 2 second
          [reader 2] exits the critical section
          [reader 4] exits the critical section
          [reader 5] enters the critical section
          [reader 5] reads database: 8
          [reader 5] sleeps 4 second
          [reader 3] exits the critical section
          [reader 4] enters the critical section
          [reader 4] reads database: 8
          [reader 2] enters the critical section
          [reader 2] reads database: 8
          [reader 2] sleeps 2 second
          [reader 4] sleeps 4 second
          [reader 3] enters the critical section
          [reader 3] reads database: 8
          [reader 3] sleeps 2 second
          [reader 1] exits the critical section
          [reader 1] enters the critical section
          [reader 1] reads database: 8
          [reader 1] sleeps 4 second
          [reader 2] exits the critical section
          [reader 3] exits the critical section
          [reader 2] enters the critical section
          [reader 2] reads database: 8
          [reader 2] sleeps 2 second
          [reader 3] enters the critical section
          [reader 3] reads database: 8
          [reader 3] sleeps 4 second
          [reader 5] exits the critical section
          [reader 4] exits the critical section
          [reader 5] enters the critical section
          [reader 5] reads database: 8
          [reader 5] sleeps 2 second
          [reader 2] exits the critical section
          [reader 4] enters the critical section
          [reader 4] reads database: 8
          [reader 4] sleeps 4 second
          [reader 2] enters the critical section
          [reader 2] reads database: 8
          [reader 2] sleeps 4 second
          [reader 5] exits the critical section
          [reader 1] exits the critical section
          [reader 1] enters the critical section
          [reader 1] reads database: 8
          [reader 1] sleeps 4 second
          [reader 5] enters the critical section
          [reader 5] reads database: 8
          [reader 5] sleeps 2 second
          [reader 3] exits the critical section
          [reader 3] enters the critical section
          [reader 3] reads database: 8
          [reader 3] sleeps 4 second
          [reader 5] exits the critical section
          [reader 4] exits the critical section
          [reader 4] enters the critical section
          [reader 4] reads database: 8
          [reader 4] sleeps 4 second
          [reader 5] enters the critical section
          [reader 5] reads database: 8
          [reader 5] sleeps 2 second
          [reader 2] exits the critical section
          [reader 2] enters the critical section
          [reader 2] reads database: 8
          [reader 2] sleeps 4 second
          [reader 1] exits the critical section
          [reader 5] exits the critical section
          [reader 1] enters the critical section
          [reader 1] reads database: 8
          [reader 1] sleeps 2 second
          [reader 3] exits the critical section
          [reader 5] enters the critical section
          [reader 5] reads database: 8
          [reader 5] sleeps 4 second
          [reader 3] enters the critical section
          [reader 3] reads database: 8
          [reader 3] sleeps 4 second
          [reader 1] exits the critical section
          [reader 4] exits the critical section
          [reader 4] enters the critical section
          [reader 4] reads database: 8
          [reader 4] sleeps 2 second
          [reader 1] enters the critical section
          [reader 1] reads database: 8
          [reader 2] exits the critical section
          [reader 1] sleeps 2 second
          [reader 2] enters the critical section
          [reader 2] reads database: 8
          [reader 2] sleeps 2 second
          [reader 1] exits the critical section
          [reader 5] exits the critical section
          [reader 4] exits the critical section
          [reader 3] exits the critical section
          [reader 5] enters the critical section
          [reader 5] reads database: 8
          [reader 5] sleeps 4 second
          [reader 2] exits the critical section
          [reader 1] enters the critical section
          [reader 1] reads database: 8
          [reader 4] enters the critical section
          [reader 4] reads database: 8
          [reader 4] sleeps 2 second
          [reader 1] sleeps 4 second
          [reader 3] enters the critical section
          [reader 3] reads database: 8
          [reader 3] sleeps 4 second
          [reader 2] enters the critical section
          [reader 2] reads database: 8
          [reader 2] sleeps 4 second
          [reader 4] exits the critical section
          [reader 4] enters the critical section
          [reader 4] reads database: 8
          [reader 4] sleeps 2 second
          [reader 5] exits the critical section
          [reader 1] exits the critical section
          [reader 3] exits the critical section
          [reader 5] enters the critical section
          [reader 5] reads database: 8
          [reader 5] sleeps 4 second
          [reader 4] exits the critical section
          [reader 1] enters the critical section
          [reader 1] reads database: 8
          [reader 1] sleeps 4 second
          [reader 2] exits the critical section
          [reader 3] enters the critical section
          [reader 3] reads database: 8
          [reader 3] sleeps 2 second
          [reader 4] enters the critical section
          [reader 4] reads database: 8
          [reader 4] sleeps 4 second
          [reader 2] enters the critical section
          [reader 2] reads database: 8
          [reader 2] sleeps 4 second
          [reader 3] exits the critical section
          [reader 3] enters the critical section
          [reader 3] reads database: 8
          [reader 3] sleeps 2 second
          [reader 1] exits the critical section
          [reader 5] exits the critical section
          [reader 1] enters the critical section
          [reader 1] reads database: 8
          [reader 1] sleeps 2 second
          [reader 5] enters the critical section
          [reader 5] reads database: 8
          [reader 5] sleeps 2 second
          [reader 2] exits the critical section
          [reader 4] exits the critical section
          [reader 3] exits the critical section
          [reader 4] enters the critical section
          [reader 4] reads database: 8
          [reader 4] sleeps 4 second
          [reader 2] enters the critical section
          [reader 2] reads database: 8
          [reader 2] sleeps 2 second
          [reader 3] enters the critical section
          [reader 3] reads database: 8
          [reader 3] sleeps 4 second
          [reader 1] exits the critical section
          [reader 5] exits the critical section
          [reader 1] enters the critical section
          [reader 1] reads database: 8
          [reader 1] sleeps 2 second
          [reader 5] enters the critical section
          [reader 5] reads database: 8
          [reader 5] sleeps 4 second
          [reader 2] exits the critical section
          [reader 2] enters the critical section
          [reader 2] reads database: 8
          [reader 2] sleeps 2 second
          [reader 4] exits the critical section
          [reader 1] exits the critical section
          [reader 3] exits the critical section
          [reader 4] enters the critical section
          [reader 4] reads database: 8
          [reader 4] sleeps 4 second
          [reader 1] enters the critical section
          [reader 1] reads database: 8
          [reader 1] sleeps 4 second
          [reader 2] exits the critical section
          [reader 3] enters the critical section
          [reader 3] reads database: 8
          [reader 3] sleeps 4 second
          [reader 2] enters the critical section
          [reader 2] reads database: 8
          [reader 2] sleeps 2 second
          [reader 5] exits the critical section
          [reader 5] enters the critical section
          [reader 5] reads database: 8
          [reader 5] sleeps 2 second
          [reader 2] exits the critical section
          [reader 2] enters the critical section
          [reader 2] reads database: 8
          [reader 2] sleeps 2 second
          [reader 4] exits the critical section
          [reader 1] exits the critical section
          [reader 3] exits the critical section
          [reader 5] exits the critical section
          [reader 4] enters the critical section
          [reader 4] reads database: 8
          [reader 4] sleeps 2 second
          [reader 3] enters the critical section
          [reader 3] reads database: 8
          [reader 3] sleeps 4 second
          [reader 5] enters the critical section
          [reader 5] reads database: 8
          [reader 1] enters the critical section
          [reader 1] reads database: 8
          [reader 1] sleeps 4 second
          [reader 5] sleeps 2 second
          [reader 2] exits the critical section
          [reader 2] enters the critical section
          [reader 2] reads database: 8
          [reader 2] sleeps 4 second
          [reader 4] exits the critical section
          [reader 5] exits the critical section
          [reader 4] enters the critical section
          [reader 4] reads database: 8
          [reader 4] sleeps 4 second
          [reader 5] enters the critical section
          [reader 5] reads database: 8
          [reader 5] sleeps 2 second
          [reader 1] exits the critical section
          [reader 3] exits the critical section
          [reader 5] exits the critical section
          [reader 3] enters the critical section
          [reader 1] enters the critical section
          [reader 1] reads database: 8
          [reader 1] sleeps 4 second
          [reader 2] exits the critical section
          [reader 3] reads database: 8
          [reader 3] sleeps 2 second
          [reader 5] enters the critical section
          [reader 5] reads database: 8
          [reader 5] sleeps 2 second
          [reader 2] enters the critical section
          [reader 2] reads database: 8
          [reader 2] sleeps 4 second
          [reader 4] exits the critical section
          [reader 4] enters the critical section
          [reader 4] reads database: 8
          [reader 4] sleeps 4 second
          [reader 3] exits the critical section
          [reader 5] exits the critical section
          [reader 3] enters the critical section
          [reader 3] reads database: 8
          [reader 3] sleeps 2 second
          [reader 5] enters the critical section
          [reader 5] reads database: 8
          [reader 5] sleeps 2 second
          [reader 1] exits the critical section
          [reader 3] exits the critical section
          [reader 2] exits the critical section
          [reader 1] enters the critical section
          [reader 1] reads database: 8
          [reader 1] sleeps 4 second
          [reader 5] exits the critical section
          [reader 2] enters the critical section
          [reader 2] reads database: 8
          [reader 3] enters the critical section
          [reader 3] reads database: 8
          [reader 3] sleeps 4 second
          [reader 2] sleeps 2 second
          [reader 5] enters the critical section
          [reader 5] reads database: 8
          [reader 5] sleeps 4 second
          [reader 4] exits the critical section
          [reader 4] enters the critical section
          [reader 4] reads database: 8
          [reader 4] sleeps 4 second
          [reader 2] exits the critical section
          [reader 2] enters the critical section
          [reader 2] reads database: 8
          [reader 2] sleeps 2 second
          [reader 1] exits the critical section
          [reader 3] exits the critical section
          [reader 1] enters the critical section
          [reader 1] reads database: 8
          [reader 1] sleeps 2 second
          [reader 5] exits the critical section
          [reader 3] enters the critical section
          [reader 3] reads database: 8
          [reader 3] sleeps 2 second
          [reader 2] exits the critical section
          [reader 5] enters the critical section
          [reader 5] reads database: 8
          [reader 5] sleeps 2 second
          [reader 2] enters the critical section
          [reader 2] reads database: 8
          [reader 2] sleeps 2 second
          [reader 4] exits the critical section
          [reader 4] enters the critical section
          [reader 4] reads database: 8
          [reader 4] sleeps 4 second
          [reader 1] exits the critical section
          [reader 3] exits the critical section
          [reader 1] enters the critical section
          [reader 1] reads database: 8
          [reader 1] sleeps 4 second
          [reader 3] enters the critical section
          [reader 3] reads database: 8
          [reader 3] sleeps 4 second
          [reader 5] exits the critical section
          [reader 2] exits the critical section
          [reader 5] enters the critical section
          [reader 5] reads database: 8
          [reader 5] sleeps 4 second
          [reader 2] enters the critical section
          [reader 2] reads database: 8
          [reader 2] sleeps 4 second
          [reader 4] exits the critical section
          [reader 4] enters the critical section
          [reader 4] reads database: 8
          [reader 4] sleeps 4 second
          [reader 1] exits the critical section
          [reader 3] exits the critical section
          [reader 1] enters the critical section
          [reader 1] reads database: 8
          [reader 1] sleeps 2 second
          [reader 3] enters the critical section
          [reader 5] exits the critical section
          [reader 3] reads database: 8
          [reader 3] sleeps 4 second
          [reader 2] exits the critical section
          [reader 5] enters the critical section
          [reader 5] reads database: 8
          [reader 5] sleeps 4 second
          [reader 2] enters the critical section
          [reader 2] reads database: 8
          [reader 2] sleeps 2 second
          [reader 1] exits the critical section
          [reader 1] enters the critical section
          [reader 1] reads database: 8
          [reader 1] sleeps 4 second
          [reader 2] exits the critical section
          [reader 2] enters the critical section
          [reader 2] reads database: 8
          [reader 2] sleeps 2 second
          [reader 4] exits the critical section
          [reader 4] enters the critical section
          [reader 4] reads database: 8
          [reader 4] sleeps 4 second
          [reader 3] exits the critical section
          [reader 3] enters the critical section
          [reader 3] reads database: 8
          [reader 3] sleeps 4 second
          [reader 5] exits the critical section
          [reader 5] enters the critical section
          [reader 5] reads database: 8
          [reader 5] sleeps 4 second
          [reader 2] exits the critical section
          [reader 2] enters the critical section
          [reader 2] reads database: 8
          [reader 2] sleeps 4 second
          [reader 1] exits the critical section
          [reader 1] enters the critical section
          [reader 1] reads database: 8
          [reader 1] sleeps 2 second
          [reader 4] exits the critical section
          [reader 4] enters the critical section
          [reader 4] reads database: 8
          [reader 4] sleeps 4 second
          [reader 3] exits the critical section
          [reader 1] exits the critical section
          [reader 1] enters the critical section
          [reader 1] reads database: 8
          [reader 1] sleeps 4 second
          [reader 5] exits the critical section
          [reader 3] enters the critical section
          [reader 3] reads database: 8
          [reader 3] sleeps 2 second
          [reader 5] enters the critical section
          [reader 5] reads database: 8
          [reader 5] sleeps 2 second
          [reader 2] exits the critical section
          [reader 2] enters the critical section
          [reader 2] reads database: 8
          [reader 2] sleeps 2 second
          [reader 3] exits the critical section
          [reader 5] exits the critical section
          [reader 3] enters the critical section
          [reader 3] reads database: 8
          [reader 3] sleeps 2 second
          [reader 5] enters the critical section
          [reader 5] reads database: 8
          [reader 5] sleeps 4 second
          [reader 2] exits the critical section
          [reader 2] enters the critical section
          [reader 2] reads database: 8
          [reader 2] sleeps 2 second
          [reader 4] exits the critical section
          [reader 4] enters the critical section
          [reader 4] reads database: 8
          [reader 4] sleeps 4 second
          [reader 1] exits the critical section
          [reader 1] enters the critical section
          [reader 1] reads database: 8
          [reader 1] sleeps 4 second
          [reader 3] exits the critical section
          [reader 3] enters the critical section
          [reader 3] reads database: 8
          [reader 3] sleeps 2 second
          [reader 2] exits the critical section
          [reader 2] enters the critical section
          [reader 2] reads database: 8
          [reader 2] sleeps 2 second
          [reader 3] exits the critical section
          [reader 5] exits the critical section
          [reader 5] enters the critical section
          [reader 5] reads database: 8
          [reader 5] sleeps 4 second
          [reader 3] enters the critical section
          [reader 3] reads database: 8
          [reader 3] sleeps 2 second
          [reader 2] exits the critical section
          [reader 2] enters the critical section
          [reader 2] reads database: 8
          [reader 2] sleeps 2 second
          [reader 4] exits the critical section
          [reader 4] enters the critical section
          [reader 4] reads database: 8
          [reader 4] sleeps 2 second
          [reader 1] exits the critical section
          [reader 1] enters the critical section
          [reader 1] reads database: 8
          [reader 1] sleeps 2 second
          [reader 3] exits the critical section
          [reader 3] enters the critical section
          [reader 3] reads database: 8
          [reader 3] sleeps 2 second
          [reader 2] exits the critical section
          [reader 2] enters the critical section
          [reader 2] reads database: 8
          [reader 2] sleeps 2 second
          [reader 4] exits the critical section
          [reader 4] enters the critical section
          [reader 4] reads database: 8
          [reader 4] sleeps 2 second
          [reader 1] exits the critical section
          [reader 5] exits the critical section
          [reader 1] enters the critical section
          [reader 1] reads database: 8
          [reader 1] sleeps 2 second
          [reader 3] exits the critical section
          [reader 5] enters the critical section
          [reader 5] reads database: 8
          [reader 5] sleeps 4 second
          [reader 3] enters the critical section
          [reader 3] reads database: 8
          [reader 3] sleeps 4 second
          [reader 2] exits the critical section
          [reader 2] enters the critical section
          [reader 2] reads database: 8
          [reader 2] sleeps 2 second
          [reader 4] exits the critical section
          [reader 1] exits the critical section
          [reader 2] exits the critical section
          [reader 5] exits the critical section
          [reader 3] exits the critical section
[writer 1] enters the critical section
[writer 1] updates database: 12
[writer 1] sleeps 5 second.....
[writer 1] exits the critical section
[writer 2] enters the critical section
[writer 2] updates database: 30
[writer 2] sleeps 5 second.....
[writer 2] exits the critical section
[writer 3] enters the critical section
[writer 3] updates database: 7
[writer 3] sleeps 5 second.....
[writer 3] exits the critical section
[writer 4] enters the critical section
[writer 4] updates database: 4
[writer 4] sleeps 5 second.....
[writer 4] exits the critical section
[writer 5] enters the critical section
[writer 5] updates database: 41
[writer 5] sleeps 10 second..........
[writer 5] exits the critical section
Total updates: 10
Total readings: 143
